\relax 
\citation{Gu2015:WIDM}
\@writefile{toc}{\contentsline {section}{\numberline {1}Introduction and Motivation}{1}}
\citation{Jin2008:ParetoMOO}
\citation{chandra2006:MOensemble}
\citation{Kumar2012}
\citation{Gu2015:WIDM}
\@writefile{toc}{\contentsline {section}{\numberline {2}Churn prediction: an important issue for customer relationship management}{2}}
\citation{Obiedat2013}
\citation{stehman1997confmatrix}
\citation{Ling2003:auc}
\@writefile{toc}{\contentsline {section}{\numberline {3}Classification Performance Measures}{3}}
\newlabel{sec:perf-msr}{{3}{3}}
\@writefile{lof}{\contentsline {figure}{\numberline {1}{\ignorespaces A confusion matrix summarises all possible outcomes in a binary-classification problem. }}{4}}
\newlabel{fig:cnf-matrix}{{1}{4}}
\@writefile{toc}{\contentsline {section}{\numberline {4}Classification Performances of Base Classifiers}{4}}
\@writefile{toc}{\contentsline {section}{\numberline {5}A brief introduction to Multi-objective Optimisation in Ensemble Learning}{4}}
\@writefile{lot}{\contentsline {table}{\numberline {1}{\ignorespaces Classification performances of 28 base classifiers using 3-fold cross validation on the Churn dataset.}}{5}}
\newlabel{tab::churn:ga:base-clsf-perf}{{1}{5}}
\citation{Caramia2008}
\citation{Caramia2008}
\citation{Caramia2008}
\@writefile{lof}{\contentsline {figure}{\numberline {2}{\ignorespaces Generalisation performances of base classifiers on 3-fold cross-validation on Churn dataset for MCC scores.}}{6}}
\newlabel{fig::chrun-baseClsf}{{2}{6}}
\@writefile{toc}{\contentsline {subsection}{\numberline {5.1}Multi-objective optimisation in a nutshell}{6}}
\newlabel{eq:obj-moop}{{2}{6}}
\citation{Hall:2009:Weka}
\citation{Jin2008:ParetoMOO}
\@writefile{lof}{\contentsline {figure}{\numberline {3}{\ignorespaces An example of Pareto-front.}}{7}}
\newlabel{fig:pareto}{{3}{7}}
\@writefile{toc}{\contentsline {section}{\numberline {6}Our Multi-objective Meta-Analytic Method for Churn Prediction}{7}}
\@writefile{toc}{\contentsline {subsection}{\numberline {6.1}Objective Selection for Multi-Objective Optimisation}{7}}
\newlabel{sec:obj-sel}{{6.1}{7}}
\@writefile{lot}{\contentsline {table}{\numberline {2}{\ignorespaces List of selected 28 base classifiers to be used for the experiments.}}{8}}
\newlabel{tab:moo-sel-clsf}{{2}{8}}
\citation{Mohammad:2016.pone}
\citation{Zhou2010:mEnDiv}
\citation{Kuncheva:2003}
\citation{Kuncheva:2003}
\@writefile{toc}{\contentsline {subsubsection}{\numberline {6.1.1}Definition of Objective Functions}{9}}
\newlabel{mo-objs}{{6.1.1}{9}}
\newlabel{eq:obj-mcc}{{4}{9}}
\newlabel{eq:entropy}{{4}{9}}
\citation{Santos:2006}
\citation{Santos:2008}
\citation{Ahmadian:2007}
\citation{Nguyen:2014}
\newlabel{eq:obj-div}{{5}{10}}
\newlabel{eq:obj-sz}{{6}{10}}
\@writefile{toc}{\contentsline {subsection}{\numberline {6.2}The MO-EoC Framework}{10}}
\citation{deb2002nsga2}
\citation{srinivas:1994:nsga}
\citation{martinez2016application}
\citation{mane2016hybrid}
\citation{vafaee2016using}
\citation{zickenrott2016prediction}
\@writefile{toc}{\contentsline {subsubsection}{\numberline {6.2.1}NSGA-II}{11}}
\@writefile{loa}{\contentsline {algocf}{\numberline {1}{\ignorespaces Pseudocode of \texttt  {NSGA-II} algorithm.}}{12}}
\newlabel{alg:nsga}{{1}{12}}
\citation{Hall:2009:Weka}
\citation{hadka2014moea}
\@writefile{toc}{\contentsline {subsubsection}{\numberline {6.2.2}The MO-EoC using NSGA-II}{13}}
\@writefile{lot}{\contentsline {table}{\numberline {3}{\ignorespaces Parameter settings of the proposed MO-EoC using NSGA-II.}}{13}}
\newlabel{tab:mo-eoc-algo_param}{{3}{13}}
\@writefile{toc}{\contentsline {subsubsection}{\numberline {6.2.3}Computational Results}{13}}
\@writefile{toc}{\contentsline {subsubsection}{\numberline {6.2.4}MCC vs Size}{14}}
\@writefile{lof}{\contentsline {figure}{\numberline {4}{\ignorespaces Pareto optimal solutions for optimising objective pairs of (MCC, Size) for Churn dataset.}}{14}}
\newlabel{fig:mo-ms-pf}{{4}{14}}
\citation{Aksela2006}
\@writefile{toc}{\contentsline {subsubsection}{\numberline {6.2.5}Diversity vs Size}{15}}
\@writefile{lof}{\contentsline {figure}{\numberline {5}{\ignorespaces Pareto optimal solutions for optimising objective pairs of (Div, Size) for Churn dataset.}}{15}}
\newlabel{fig:mo-sz-dv}{{5}{15}}
\@writefile{toc}{\contentsline {subsubsection}{\numberline {6.2.6}MCC vs Diversity}{16}}
\newlabel{mo-MD}{{6.2.6}{16}}
\@writefile{lof}{\contentsline {figure}{\numberline {6}{\ignorespaces Pareto optimal solutions for optimising objective pairs of (MCC, Div) for Churn dataset.}}{16}}
\newlabel{fig:mo-mcc-dv}{{6}{16}}
\@writefile{toc}{\contentsline {subsubsection}{\numberline {6.2.7}An alternative approach in objective optimisation: Maximising the Ensemble Size}{16}}
\@writefile{lof}{\contentsline {figure}{\numberline {7}{\ignorespaces Pareto optimal solutions for optimising objective pairs of (MCC, MaxSize) for Churn dataset.}}{17}}
\newlabel{fig:mo-mcc-maxSz}{{7}{17}}
\@writefile{toc}{\contentsline {subsection}{\numberline {6.3}Training and Testing Performances of MO-EoC}{17}}
\newlabel{mo-trn-tst}{{6.3}{17}}
\@writefile{lof}{\contentsline {figure}{\numberline {8}{\ignorespaces Comparison of Training MCC and Testing MCC scores of MO-EoC for optimising MCC and Ensemble Size for Churn dataset.}}{18}}
\newlabel{fig:mo-trnTst-ms}{{8}{18}}
\@writefile{lof}{\contentsline {figure}{\numberline {9}{\ignorespaces Comparison of Training MCC and Testing MCC scores of MO-EoC for optimising MCC and Diversity for Churn dataset.}}{18}}
\newlabel{fig:mo-trnTst-md}{{9}{18}}
\citation{deVries2014}
\@writefile{toc}{\contentsline {subsection}{\numberline {6.4}Summary of the MO-EoC Algorithm Results}{19}}
\@writefile{toc}{\contentsline {subsection}{\numberline {6.5}Classifying Churners with Symbolic Regression Analysis}{19}}
\newlabel{sec:symreg-eureqa-explanation}{{6.5}{19}}
\citation{deVries2014}
\@writefile{toc}{\contentsline {section}{\numberline {7}Classification Performances of State-of-the-art Ensemble of Classifiers}{21}}
\@writefile{lof}{\contentsline {figure}{\numberline {10}{\ignorespaces Generalisation performances of state-of-the-art ensemble of classifiers on 3-fold cross-validation on Churn dataset for MCC scores.}}{21}}
\newlabel{fig::chrun:ensm-mcc}{{10}{21}}
\@writefile{lot}{\contentsline {table}{\numberline {4}{\ignorespaces Summary of classification performances of GA-EoC using 3-fold cross validation of Churn dataset for 50 independent runs.}}{22}}
\newlabel{churn:ga:mo-perf-sumr}{{4}{22}}
\@writefile{toc}{\contentsline {subsection}{\numberline {7.1}Classification Performances of GA-EoC}{22}}
\@writefile{toc}{\contentsline {subsubsection}{\numberline {7.1.1}Comparison of MCC scores achieved by Base Classifiers, other ensembles and GA-EoC}{22}}
\@writefile{lof}{\contentsline {figure}{\numberline {11}{\ignorespaces Comparison of generalisation performances of base classifiers, other ensemble of classifiers and GA-EoC on 3-fold cross-validation on Churn dataset for MCC scores.}}{22}}
\newlabel{fig::chrun:cmp-all-mcc}{{11}{22}}
\@writefile{toc}{\contentsline {subsubsection}{\numberline {7.1.2}Comparison of MCC scores achieved by Base Classifiers, other ensembles and GA-EoC}{22}}
\@writefile{lof}{\contentsline {figure}{\numberline {12}{\ignorespaces Frequency of appearances of all ensemble combinations in 50 independent runs of GA-EoC using 3-fold cross validation on Churn dataset. }}{23}}
\newlabel{fig::chrun:al-soln-mcc}{{12}{23}}
\@writefile{toc}{\contentsline {section}{\numberline {8}Classification using Symbolic Regression Modeling}{23}}
\newlabel{sec:SymRegEureqa-Churn}{{8}{23}}
\@writefile{toc}{\contentsline {subsection}{\numberline {8.1}Interpreting Symbolic Regression Results}{23}}
\newlabel{sec:InterpretEureqaResults}{{8.1}{23}}
\@writefile{lot}{\contentsline {table}{\numberline {5}{\ignorespaces Classification results of Eureqa Models in all three folds. All four models for each fold were tested in the test set and the Accuracy, the `Actual Churner's Rate' and Matthew's Correlation Coefficient (MCC) metrics were computed. The best results when taking all three metrics into account are shown in boldface.}}{24}}
\newlabel{tab:Eureqaresults}{{5}{24}}
\@writefile{lot}{\contentsline {table}{\numberline {6}{\ignorespaces The five most used variables by Eureqa for each Fold}}{24}}
\newlabel{tab:Variables-used-by-eureqa}{{6}{24}}
\@writefile{lot}{\contentsline {table}{\numberline {7}{\ignorespaces Variable sensitivity analysis for the best linear model of Fold 1. In this case, the best linear model was also the best model with still all 100\% positive or negative sensitivities.}}{25}}
\newlabel{tab:Fold1-bestlinear-sensitivity}{{7}{25}}
\@writefile{lot}{\contentsline {table}{\numberline {8}{\ignorespaces Variable sensitivity analysis for the best model of Fold 1.}}{26}}
\newlabel{tab:Fold1-bestmodel-sensitivity}{{8}{26}}
\@writefile{lot}{\contentsline {table}{\numberline {9}{\ignorespaces Variable sensitivity analysis for the best linear model of Fold 2.}}{26}}
\newlabel{tab:Fold2-bestlinear-sensitivity}{{9}{26}}
\@writefile{lot}{\contentsline {table}{\numberline {10}{\ignorespaces Variable sensitivity analysis for the best model of Fold 2.}}{27}}
\newlabel{tab:Fold2-bestmodel-sensitivity}{{10}{27}}
\@writefile{lot}{\contentsline {table}{\numberline {11}{\ignorespaces Variable sensitivity analysis for the best linear model of Fold 3.}}{27}}
\newlabel{tab:Fold3-bestlinear-sensitivity}{{11}{27}}
\@writefile{lot}{\contentsline {table}{\numberline {12}{\ignorespaces Variable sensitivity analysis for the best model of Fold 3.}}{27}}
\newlabel{tab:Fold3-bestmodel-sensitivity}{{12}{27}}
\bibstyle{apalike}
\bibdata{test}
\bibcite{Ahmadian:2007}{Ahmadian et\nobreakspace  {}al., 2007}
\bibcite{Aksela2006}{Aksela and Laaksonen, 2006}
\bibcite{Caramia2008}{Caramia and Dell'Olmo, 2008}
\bibcite{chandra2006:MOensemble}{Chandra and Yao, 2006}
\bibcite{deb2002nsga2}{Deb et\nobreakspace  {}al., 2002}
\bibcite{Santos:2006}{{Dos Santos} et\nobreakspace  {}al., 2006}
\bibcite{Santos:2008}{Dos\nobreakspace  {}Santos et\nobreakspace  {}al., 2008}
\bibcite{Gu2015:WIDM}{Gu et\nobreakspace  {}al., 2015}
\bibcite{hadka2014moea}{Hadka, 2014}
\bibcite{Hall:2009:Weka}{Hall et\nobreakspace  {}al., 2009}
\bibcite{Mohammad:2016.pone}{Haque et\nobreakspace  {}al., 2016}
\@writefile{toc}{\contentsline {section}{\numberline {9}Conclusions}{28}}
\bibcite{Jin2008:ParetoMOO}{Jin and Sendhoff, 2008}
\bibcite{Kumar2012}{Kumar and Kumar, 2012}
\bibcite{Kuncheva:2003}{Kuncheva and Whitaker, 2003}
\bibcite{Ling2003:auc}{Ling et\nobreakspace  {}al., 2003}
\bibcite{mane2016hybrid}{Mane et\nobreakspace  {}al., 2016}
\bibcite{martinez2016application}{Mart{\'\i }nez-Vargas et\nobreakspace  {}al., 2016}
\bibcite{Nguyen:2014}{Nguyen et\nobreakspace  {}al., 2014}
\bibcite{srinivas:1994:nsga}{Srinivas and Deb, 1994}
\bibcite{stehman1997confmatrix}{Stehman, 1997}
\bibcite{vafaee2016using}{Vafaee, 2016}
\bibcite{Zhou2010:mEnDiv}{Zhou and Li, 2010}
\bibcite{zickenrott2016prediction}{Zickenrott et\nobreakspace  {}al., 2016}
